id,name,model_id:id,group_id:id,perm_read,perm_write,perm_create,perm_unlink
access_geo_collection,access_geo_collection,model_geo_collection,tr_geocollector.group_geocollector_user,1,1,1,1
access_geo_specimen_collection,access_geo_specimen_collection,model_geo_specimen_collection,tr_geocollector.group_geocollector_user,1,1,1,1
