id,name,model_id:id,group_id:id,perm_read,perm_write,perm_create,perm_unlink
access_geo_location_type_user,access_geo_location_type_user,model_geo_location_type,tr_geocollector.group_geocollector_user,1,0,0,0
access_geo_location_type_admin,access_geo_location_type_admin,model_geo_location_type,tr_geocollector.group_geocollector_user,1,1,1,1
access_geo_location_status_user,access_geo_location_status_user,model_geo_location_status,tr_geocollector.group_geocollector_user,1,0,0,0
access_geo_location_status_admin,access_geo_location_status_admin,model_geo_location_status,tr_geocollector.group_geocollector_user,1,1,1,1
access_geo_location,access_geo_location,model_geo_location,tr_geocollector.group_geocollector_user,1,1,1,1
access_geo_specimen_type_user,access_geo_specimen_type_user,model_geo_specimen_type,tr_geocollector.group_geocollector_user,1,0,0,0
access_geo_specimen_type_admin,access_geo_specimen_type_admin,model_geo_specimen_type,tr_geocollector.group_geocollector_user,1,1,1,1
access_geo_specimen,access_geo_specimen,model_geo_specimen,tr_geocollector.group_geocollector_user,1,1,1,1
access_print_specimen_labels,access_print_specimen_labels,model_print_specimen_labels,tr_geocollector.group_geocollector_user,1,1,1,1

